assets/vcd/or.vcd
$timescale 1 TimescaleUnit.ns $end
$scope module OR2-0 $end
$var wire 1 ! OR2-0-i0 $end
$var wire 1 " OR2-0-i1 $end
$var wire 1 # OR2-0-o0 $end
$scope module NAND-1 $end
$var wire 1 $ NAND-1-i0 $end
$var wire 1 % NAND-1-o0 $end
$var wire 1 & NAND1-2-i0 $end
$var wire 1 ' NAND1-2-o0 $end
$upscope $end
$scope module NAND-2 $end
$var wire 1 ( NAND-2-i0 $end
$var wire 1 ) NAND-2-o0 $end
$var wire 1 * NAND1-3-i0 $end
$var wire 1 + NAND1-3-o0 $end
$upscope $end
$scope module NAND-3 $end
$var wire 1 , NAND-3-i0 $end
$var wire 1 - NAND-3-i1 $end
$var wire 1 . NAND-3-o0 $end
$var wire 1 / NAND2-4-i0 $end
$var wire 1 0 NAND2-4-i1 $end
$var wire 1 1 NAND2-4-o0 $end
$upscope $end
$upscope $end
$scope module clk $end
$var wire 1 2 clk $end
$upscope $end
$enddefinitions $end
$dumpvars
12
x!
x"
x#
x$
x%
x(
x)
x,
x-
x.
x/
x0
x1
$end
#0
0!
0"
0#
0$
1%
0(
1)
1,
1-
0.
12
#1
0!
0"
0#
0$
1%
0(
1)
1,
1-
0.
02
#2
0!
1"
0#
0$
1%
1(
0)
1,
0-
0.
12
#3
0!
1"
1#
0$
1%
1(
0)
1,
0-
1.
02
#4
1!
0"
1#
1$
0%
0(
1)
0,
1-
1.
12
#5
1!
0"
1#
1$
0%
0(
1)
0,
1-
1.
02
#6
1!
1"
1#
1$
0%
1(
0)
0,
0-
1.
12
#7
1!
1"
1#
1$
0%
1(
0)
0,
0-
1.
02
#8
0!
0"
1#
0$
1%
0(
1)
1,
1-
1.
12
#9
0!
0"
0#
0$
1%
0(
1)
1,
1-
0.
02
#10
0!
1"
0#
0$
1%
1(
0)
1,
0-
0.
12
#11
0!
1"
1#
0$
1%
1(
0)
1,
0-
1.
02
#12
1!
0"
1#
1$
0%
0(
1)
0,
1-
1.
12
#13
1!
0"
1#
1$
0%
0(
1)
0,
1-
1.
02
#14
1!
1"
1#
1$
0%
1(
0)
0,
0-
1.
12
#15
1!
1"
1#
1$
0%
1(
0)
0,
0-
1.
02
#16
0!
0"
1#
0$
1%
0(
1)
1,
1-
1.
12
#17
0!
0"
0#
0$
1%
0(
1)
1,
1-
0.
02
#18
0!
1"
0#
0$
1%
1(
0)
1,
0-
0.
12
#19
0!
1"
1#
0$
1%
1(
0)
1,
0-
1.
02
#20
1!
0"
1#
1$
0%
0(
1)
0,
1-
1.
12
#21
1!
0"
1#
1$
0%
0(
1)
0,
1-
1.
02
#22
1!
1"
1#
1$
0%
1(
0)
0,
0-
1.
12
#23
1!
1"
1#
1$
0%
1(
0)
0,
0-
1.
02
#24
0!
0"
1#
0$
1%
0(
1)
1,
1-
1.
12
#25
0!
0"
0#
0$
1%
0(
1)
1,
1-
0.
02
#26
0!
1"
0#
0$
1%
1(
0)
1,
0-
0.
12
#27
0!
1"
1#
0$
1%
1(
0)
1,
0-
1.
02
#28
1!
0"
1#
1$
0%
0(
1)
0,
1-
1.
12
#29
1!
0"
1#
1$
0%
0(
1)
0,
1-
1.
02
#30
1!
1"
1#
1$
0%
1(
0)
0,
0-
1.
12
#31
1!
1"
1#
1$
0%
1(
0)
0,
0-
1.
02
#32
0!
0"
1#
0$
1%
0(
1)
1,
1-
1.
12
#33
0!
0"
0#
0$
1%
0(
1)
1,
1-
0.
02
#34
0!
1"
0#
0$
1%
1(
0)
1,
0-
0.
12
#35
0!
1"
1#
0$
1%
1(
0)
1,
0-
1.
02
#36
1!
0"
1#
1$
0%
0(
1)
0,
1-
1.
12
#37
1!
0"
1#
1$
0%
0(
1)
0,
1-
1.
02
#38
1!
1"
1#
1$
0%
1(
0)
0,
0-
1.
12
#39
1!
1"
1#
1$
0%
1(
0)
0,
0-
1.
02
#40
0!
0"
1#
0$
1%
0(
1)
1,
1-
1.
12
#41
0!
0"
0#
0$
1%
0(
1)
1,
1-
0.
02
#42
0!
1"
0#
0$
1%
1(
0)
1,
0-
0.
12
#43
0!
1"
1#
0$
1%
1(
0)
1,
0-
1.
02
#44
1!
0"
1#
1$
0%
0(
1)
0,
1-
1.
12
#45
1!
0"
1#
1$
0%
0(
1)
0,
1-
1.
02
#46
1!
1"
1#
1$
0%
1(
0)
0,
0-
1.
12
#47
1!
1"
1#
1$
0%
1(
0)
0,
0-
1.
02
#48
0!
0"
1#
0$
1%
0(
1)
1,
1-
1.
12
#49
0!
0"
0#
0$
1%
0(
1)
1,
1-
0.
02
#50
0!
1"
0#
0$
1%
1(
0)
1,
0-
0.
12
#51
0!
1"
1#
0$
1%
1(
0)
1,
0-
1.
02
#52
1!
0"
1#
1$
0%
0(
1)
0,
1-
1.
12
#53
1!
0"
1#
1$
0%
0(
1)
0,
1-
1.
02
#54
1!
1"
1#
1$
0%
1(
0)
0,
0-
1.
12
#55
1!
1"
1#
1$
0%
1(
0)
0,
0-
1.
02
#56
0!
0"
1#
0$
1%
0(
1)
1,
1-
1.
12
#57
0!
0"
0#
0$
1%
0(
1)
1,
1-
0.
02
#58
0!
1"
0#
0$
1%
1(
0)
1,
0-
0.
12
#59
0!
1"
1#
0$
1%
1(
0)
1,
0-
1.
02
#60
1!
0"
1#
1$
0%
0(
1)
0,
1-
1.
12
#61
1!
0"
1#
1$
0%
0(
1)
0,
1-
1.
02
#62
1!
1"
1#
1$
0%
1(
0)
0,
0-
1.
12
#63
1!
1"
1#
1$
0%
1(
0)
0,
0-
1.
02
#64
0!
0"
1#
0$
1%
0(
1)
1,
1-
1.
12
#65
0!
0"
0#
0$
1%
0(
1)
1,
1-
0.
02
#66
0!
1"
0#
0$
1%
1(
0)
1,
0-
0.
12
#67
0!
1"
1#
0$
1%
1(
0)
1,
0-
1.
02
#68
1!
0"
1#
1$
0%
0(
1)
0,
1-
1.
12
#69
1!
0"
1#
1$
0%
0(
1)
0,
1-
1.
02
#70
1!
1"
1#
1$
0%
1(
0)
0,
0-
1.
12
#71
1!
1"
1#
1$
0%
1(
0)
0,
0-
1.
02
#72
0!
0"
1#
0$
1%
0(
1)
1,
1-
1.
12
#73
0!
0"
0#
0$
1%
0(
1)
1,
1-
0.
02
#74
0!
1"
0#
0$
1%
1(
0)
1,
0-
0.
12
#75
0!
1"
1#
0$
1%
1(
0)
1,
0-
1.
02
#76
1!
0"
1#
1$
0%
0(
1)
0,
1-
1.
12
#77
1!
0"
1#
1$
0%
0(
1)
0,
1-
1.
02
#78
1!
1"
1#
1$
0%
1(
0)
0,
0-
1.
12
#79
1!
1"
1#
1$
0%
1(
0)
0,
0-
1.
02
#80
0!
0"
1#
0$
1%
0(
1)
1,
1-
1.
12
#81
0!
0"
0#
0$
1%
0(
1)
1,
1-
0.
02
#82
0!
1"
0#
0$
1%
1(
0)
1,
0-
0.
12
#83
0!
1"
1#
0$
1%
1(
0)
1,
0-
1.
02
#84
1!
0"
1#
1$
0%
0(
1)
0,
1-
1.
12
#85
1!
0"
1#
1$
0%
0(
1)
0,
1-
1.
02
#86
1!
1"
1#
1$
0%
1(
0)
0,
0-
1.
12
#87
1!
1"
1#
1$
0%
1(
0)
0,
0-
1.
02
#88
0!
0"
1#
0$
1%
0(
1)
1,
1-
1.
12
#89
0!
0"
0#
0$
1%
0(
1)
1,
1-
0.
02
#90
0!
1"
0#
0$
1%
1(
0)
1,
0-
0.
12
#91
0!
1"
1#
0$
1%
1(
0)
1,
0-
1.
02
#92
1!
0"
1#
1$
0%
0(
1)
0,
1-
1.
12
#93
1!
0"
1#
1$
0%
0(
1)
0,
1-
1.
02
#94
1!
1"
1#
1$
0%
1(
0)
0,
0-
1.
12
#95
1!
1"
1#
1$
0%
1(
0)
0,
0-
1.
02
#96
0!
0"
1#
0$
1%
0(
1)
1,
1-
1.
12
#97
0!
0"
0#
0$
1%
0(
1)
1,
1-
0.
02
#98
0!
1"
0#
0$
1%
1(
0)
1,
0-
0.
12
#99
0!
1"
1#
0$
1%
1(
0)
1,
0-
1.
02
